## Interface: 60000
## Title: Big Buttons
## Version: 1.12
## Notes: BigButtons
## Author: Azilroka, Sortokk
## OptionalDeps: Tukui, ElvUI, AsphyxiaUI, DuffedUI, Enhanced_Config
## X-Tukui-ProjectID: 131
## X-Tukui-ProjectFolders: BigButtons

BigButtons.lua